!$$SOF
MAKE_EPHEM=YES
COMMAND=301
EPHEM_TYPE=VECTORS
CENTER='coord@10'
COORD_TYPE=GEODETIC
SITE_COORD='13.35075983141236,52.497297553950155,0.0354'
START_TIME='2023-01-01'
STOP_TIME='2023-05-01'
STEP_SIZE='1 DAYS'
VEC_TABLE='2x'
REF_SYSTEM='ICRF'
REF_PLANE='ECLIPTIC'
VEC_CORR='NONE'
CAL_TYPE='M'
OUT_UNITS='KM-S'
VEC_LABELS='YES'
VEC_DELTA_T='NO'
CSV_FORMAT='NO'
OBJ_DATA='YES'